…
2.4.2 Selecting columns

To select a few columns we need to add their names to the select verb. The order in which we add them, will determine the order in which they appear in the output.

For example, let´s select the information about Faculty’s full name. The following code can be read as follows: “From the data dataset, select only the EmployeeName column”.

select(data,EmployeeName)
## # A tibble: 850 × 1
##    EmployeeName         
##    <chr>                
##  1 Adinolfi, Wilson  K  
##  2 Ait Sidi, Karthikeyan
##  3 Akinkuolie, Sarah    
##  4 Alagbe,Trina         
##  5 Anderson, Carol      
##  6 Anderson, Linda      
##  7 Andreola, Colby      
##  8 Athwal, Sam          
##  9 Bachiochi, Linda     
## 10 Newman, Richard      
## # … with 840 more rows

The select() verb can also be used to drop columns from a dataframe using the the - symbol. The following code can be read as follows: “From the data dataset, select all columns that are not the EmployeeName column”.

select(data,-EmployeeName)
## # A tibble: 850 × 31
##    AcadYear FirstYearApp Sex   YearBirth Nationality Appointment SchoolApp      
##       <dbl>        <dbl> <chr>     <dbl> <chr>             <dbl> <chr>          
##  1     2019         2019 M          1987 USA                   1 ComputerScience
##  2     2019         2019 M          1985 USA                   1 ComputerScience
##  3     2019         2019 F          1981 USA                   1 ComputerScience
##  4     2019         2019 F          1979 USA                   1 ComputerScience
##  5     2019         2019 F          1977 USA                   1 ComputerScience
##  6     2019         2019 F          1977 England               2 ComputerScience
##  7     2019         2019 F          1975 England               2 ComputerScience
##  8     2019         2019 M          1985 England               2 ComputerScience
##  9     2019         2019 F          1967 Spain                 3 ComputerScience
## 10     2019         2019 M          1969 Spain                 3 ComputerScience
## # … with 840 more rows, and 24 more variables: Salary <dbl>,
## #   DaysLateLast30 <dbl>, Absences <dbl>, ResearchArea <chr>,
## #   JobSatisfaction <dbl>, SelfEvalResp <dbl>, SelfEvalTech <dbl>,
## #   SelfEvalInnov <dbl>, StudentEvalResp <dbl>, StudentEvalTech <dbl>,
## #   StudentEvalInnov <dbl>, CoursesUnd <dbl>, CoursesGrad <dbl>,
## #   MentoringResProj <dbl>, MentoringTheses <dbl>, NumPublication <dbl>,
## #   SubManuscripts <dbl>, NumCitations <dbl>, NumBooks <dbl>, …

The above code reduced the dimensions of our data frame [850 × 31].

To select multiple columns, we need to add their names to the select() verb. Let´s select information about Faculty’s full name, nationality, sex, and salary.

select(data,EmployeeName,Nationality, Sex, Salary)
## # A tibble: 850 × 4
##    EmployeeName          Nationality Sex   Salary
##    <chr>                 <chr>       <chr>  <dbl>
##  1 Adinolfi, Wilson  K   USA         M      62506
##  2 Ait Sidi, Karthikeyan USA         M     104437
##  3 Akinkuolie, Sarah     USA         F      64955
##  4 Alagbe,Trina          USA         F      64991
##  5 Anderson, Carol       USA         F      50825
##  6 Anderson, Linda       England     F      57568
##  7 Andreola, Colby       England     F      95660
##  8 Athwal, Sam           England     M      59365
##  9 Bachiochi, Linda      Spain       F      47837
## 10 Newman, Richard       Spain       M      50178
## # … with 840 more rows

2.4.3 Filtering rows

The filter() verb is used to extract rows, based on a specified condition.

For example, we want to extract only the rows belonging to female faculty.

filter(data,Sex == "F")
## # A tibble: 486 × 32
##    AcadYear FirstYearApp EmployeeName    Sex   YearBirth Nationality Appointment
##       <dbl>        <dbl> <chr>           <chr>     <dbl> <chr>             <dbl>
##  1     2019         2019 Akinkuolie, Sa… F          1981 USA                   1
##  2     2019         2019 Alagbe,Trina    F          1979 USA                   1
##  3     2019         2019 Anderson, Carol F          1977 USA                   1
##  4     2019         2019 Anderson, Linda F          1977 England               2
##  5     2019         2019 Andreola, Colby F          1975 England               2
##  6     2019         2019 Bachiochi, Lin… F          1967 Spain                 3
##  7     2019         2019 Ngodup, Shari   F          1981 Australia             1
##  8     2019         2019 Nguyen, Dheepa  F          1977 Australia             1
##  9     2019         2019 Nguyen, Lei-Mi… F          1982 Denmark               1
## 10     2019         2019 Nowlan, Kristie F          1982 Canada                1
## # … with 476 more rows, and 25 more variables: SchoolApp <chr>, Salary <dbl>,
## #   DaysLateLast30 <dbl>, Absences <dbl>, ResearchArea <chr>,
## #   JobSatisfaction <dbl>, SelfEvalResp <dbl>, SelfEvalTech <dbl>,
## #   SelfEvalInnov <dbl>, StudentEvalResp <dbl>, StudentEvalTech <dbl>,
## #   StudentEvalInnov <dbl>, CoursesUnd <dbl>, CoursesGrad <dbl>,
## #   MentoringResProj <dbl>, MentoringTheses <dbl>, NumPublication <dbl>,
## #   SubManuscripts <dbl>, NumCitations <dbl>, NumBooks <dbl>, …

The above code reduced the dimensions of our data frame [486 × 32].

The filter() verb can also be used to extract rows, based on multiple conditions. Let´s extract the rows belonging to female faculty who published at least five research articles during academic year 2021.

filter(data,Sex == "F" &  AcadYear  == "2021" & NumPublication > 5)
## # A tibble: 120 × 32
##    AcadYear FirstYearApp EmployeeName    Sex   YearBirth Nationality Appointment
##       <dbl>        <dbl> <chr>           <chr>     <dbl> <chr>             <dbl>
##  1     2021         2019 Akinkuolie, Sa… F          1981 USA                   1
##  2     2021         2019 Alagbe,Trina    F          1979 USA                   1
##  3     2021         2019 Anderson, Carol F          1977 USA                   1
##  4     2021         2019 Anderson, Linda F          1977 England               2
##  5     2021         2019 Andreola, Colby F          1975 England               2
##  6     2021         2019 Bachiochi, Lin… F          1967 Spain                 3
##  7     2021         2019 Baczenski, Rac… F          1981 Australia             1
##  8     2021         2019 Beak, Kimberly  F          1977 USA                   2
##  9     2021         2019 Beatrice, Cour… F          1981 USA                   2
## 10     2021         2019 Becker, Renee   F          1975 USA                   3
## # … with 110 more rows, and 25 more variables: SchoolApp <chr>, Salary <dbl>,
## #   DaysLateLast30 <dbl>, Absences <dbl>, ResearchArea <chr>,
## #   JobSatisfaction <dbl>, SelfEvalResp <dbl>, SelfEvalTech <dbl>,
## #   SelfEvalInnov <dbl>, StudentEvalResp <dbl>, StudentEvalTech <dbl>,
## #   StudentEvalInnov <dbl>, CoursesUnd <dbl>, CoursesGrad <dbl>,
## #   MentoringResProj <dbl>, MentoringTheses <dbl>, NumPublication <dbl>,
## #   SubManuscripts <dbl>, NumCitations <dbl>, NumBooks <dbl>, …

2.4.4 Creating columns

The mutate() verb is useful for creating new columns to a dataframe, which will have the results of operations on already existing columns.

For example, we would like to add a new column with a salary adjustment of 10%. Let´s create the AdjSalary column.

mutate(data,AdjSalary = Salary+Salary*0.1)
## # A tibble: 850 × 33
##    AcadYear FirstYearApp EmployeeName    Sex   YearBirth Nationality Appointment
##       <dbl>        <dbl> <chr>           <chr>     <dbl> <chr>             <dbl>
##  1     2019         2019 Adinolfi, Wils… M          1987 USA                   1
##  2     2019         2019 Ait Sidi, Kart… M          1985 USA                   1
##  3     2019         2019 Akinkuolie, Sa… F          1981 USA                   1
##  4     2019         2019 Alagbe,Trina    F          1979 USA                   1
##  5     2019         2019 Anderson, Carol F          1977 USA                   1
##  6     2019         2019 Anderson, Linda F          1977 England               2
##  7     2019         2019 Andreola, Colby F          1975 England               2
##  8     2019         2019 Athwal, Sam     M          1985 England               2
##  9     2019         2019 Bachiochi, Lin… F          1967 Spain                 3
## 10     2019         2019 Newman, Richard M          1969 Spain                 3
## # … with 840 more rows, and 26 more variables: SchoolApp <chr>, Salary <dbl>,
## #   DaysLateLast30 <dbl>, Absences <dbl>, ResearchArea <chr>,
## #   JobSatisfaction <dbl>, SelfEvalResp <dbl>, SelfEvalTech <dbl>,
## #   SelfEvalInnov <dbl>, StudentEvalResp <dbl>, StudentEvalTech <dbl>,
## #   StudentEvalInnov <dbl>, CoursesUnd <dbl>, CoursesGrad <dbl>,
## #   MentoringResProj <dbl>, MentoringTheses <dbl>, NumPublication <dbl>,
## #   SubManuscripts <dbl>, NumCitations <dbl>, NumBooks <dbl>, …
…
2.4.6 Multiple verbs at once

So far, we have only used one verb in each command line. However, these verbs can be chained together using the pipe operator (%>%) to perform more complex data manipulations.

Let´s try to reduce the dimension of our dataframe to work only with personal information of female faculty. To do that, we will use the pipe operator (%>%) and select () and filter() verbs.

data %>% 
  select(EmployeeName,Sex,YearBirth,Nationality) %>% 
  filter(Sex=="F")
## # A tibble: 486 × 4
##    EmployeeName      Sex   YearBirth Nationality
##    <chr>             <chr>     <dbl> <chr>      
##  1 Akinkuolie, Sarah F          1981 USA        
##  2 Alagbe,Trina      F          1979 USA        
##  3 Anderson, Carol   F          1977 USA        
##  4 Anderson, Linda   F          1977 England    
##  5 Andreola, Colby   F          1975 England    
##  6 Bachiochi, Linda  F          1967 Spain      
##  7 Ngodup, Shari     F          1981 Australia  
##  8 Nguyen, Dheepa    F          1977 Australia  
##  9 Nguyen, Lei-Ming  F          1982 Denmark    
## 10 Nowlan, Kristie   F          1982 Canada     
## # … with 476 more rows

The above code reduced the dimensions of our data frame [486 × 4].
Now, let´s order alphabetically the new dataframe. To reorder the rows of EmployeeName column, we will use the arrange() verb.

data %>% 
  select(EmployeeName,Sex,YearBirth,Nationality) %>% 
  filter(Sex=="F") %>% 
  arrange(EmployeeName)
## # A tibble: 486 × 4
##    EmployeeName      Sex   YearBirth Nationality
##    <chr>             <chr>     <dbl> <chr>      
##  1 Akinkuolie, Sarah F          1981 USA        
##  2 Akinkuolie, Sarah F          1981 USA        
##  3 Akinkuolie, Sarah F          1981 USA        
##  4 Akinkuolie, Sarah F          1981 USA        
##  5 Alagbe,Trina      F          1979 USA        
##  6 Alagbe,Trina      F          1979 USA        
##  7 Alagbe,Trina      F          1979 USA        
##  8 Alagbe,Trina      F          1979 USA        
##  9 Anderson, Carol   F          1977 USA        
## 10 Anderson, Carol   F          1977 USA        
## # … with 476 more rows

However, there is something wrong with this output. We have repeated information for each faculty. We can use distinct() to remove all duplicate rows.

data %>% 
  select(EmployeeName,Sex,YearBirth,Nationality) %>% 
  filter(Sex=="F") %>% 
  distinct(EmployeeName)
## # A tibble: 130 × 1
##    EmployeeName     
##    <chr>            
##  1 Akinkuolie, Sarah
##  2 Alagbe,Trina     
##  3 Anderson, Carol  
##  4 Anderson, Linda  
##  5 Andreola, Colby  
##  6 Bachiochi, Linda 
##  7 Ngodup, Shari    
##  8 Nguyen, Dheepa   
##  9 Nguyen, Lei-Ming 
## 10 Nowlan, Kristie  
## # … with 120 more rows
…
